2020-10-26 21:14:25.477 +01:00 [INF] {"photos":{"page":1,"pages":4388,"perpage":100,"total":"438708","photo":[{"id":"50534341856","owner":"22087304@N07","secret":"bb7326d35c","server":"65535","farm":66,"title":"Ford Escort Mk1","ispublic":1,"isfriend":0,"isfamily":0},{"id":"50534332641","owner":"51035555243@N01","secret":"56853354e5","server":"65535","farm":66,"title":"Found Photo","ispublic":1,"isfriend":0,"isfamily":0},{"id":"50534327411","owner":"51035555243@N01","secret":"71bc4b0f12","server":"65535","farm":66,"title":"Ask Jesus Into Your Heart","ispublic":1,"isfriend":0,"isfamily":0},{"id":"50534324456","owner":"51035555243@N01","secret":"cd08e7269d","server":"65535","farm":66,"title":"Found Kodachrome Slide","ispublic":1,"isfriend":0,"isfamily":0},{"id":"50533592608","owner":"126195886@N06","secret":"8211d1814e","server":"65535","farm":66,"title":"Ford Focus","ispublic":1,"isfriend":0,"isfamily":0},{"id":"50534252316","owner":"98081741@N05","secret":"175f55455c","server":"65535","farm":66,"title":"Shooter","ispublic":1,"isfriend":0,"isfamily":0},{"id":"50534249901","owner":"164173524@N07","secret":"85b0d9fc52","server":"65535","farm":66,"title":"2005 Smart Forfour 1.1 Passion","ispublic":1,"isfriend":0,"isfamily":0},{"id":"50533509458","owner":"93207294@N04","secret":"26d7362326","server":"65535","farm":66,"title":"Ducati 916 Biposto","ispublic":1,"isfriend":0,"isfamily":0},{"id":"50534239606","owner":"93207294@N04","secret":"46515043a8","server":"65535","farm":66,"title":"Ducati 916 Biposto","ispublic":1,"isfriend":0,"isfamily":0},{"id":"50533506228","owner":"190759997@N04","secret":"d58a56f786","server":"65535","farm":66,"title":"#sun #car #sunrise #photography","ispublic":1,"isfriend":0,"isfamily":0},{"id":"50533448978","owner":"90659355@N04","secret":"b304083dd1","server":"65535","farm":66,"title":"Bugatti '28 type 40 Touring Car","ispublic":1,"isfriend":0,"isfamily":0},{"id":"50534175536","owner":"8733637@N04","secret":"2f1eec6ee1","server":"65535","farm":66,"title":"Saab 900 GL 1984","ispublic":1,"isfriend":0,"isfamily":0},{"id":"50534171786","owner":"8500742@N03","secret":"b8294b9999","server":"65535","farm":66,"title":"Flower power","ispublic":1,"isfriend":0,"isfamily":0},{"id":"50534161516","owner":"30279041@N04","secret":"26b4648cc9","server":"65535","farm":66,"title":"Aston Martin DBR9 2005","ispublic":1,"isfriend":0,"isfamily":0},{"id":"50533418748","owner":"30279041@N04","secret":"44ab0465e6","server":"65535","farm":66,"title":"Aston Martin DBR9 2005","ispublic":1,"isfriend":0,"isfamily":0},{"id":"50534139416","owner":"30279041@N04","secret":"f459111904","server":"65535","farm":66,"title":"Peugeot 90X 2011","ispublic":1,"isfriend":0,"isfamily":0},{"id":"50534127351","owner":"30279041@N04","secret":"642f003411","server":"65535","farm":66,"title":"Lola B12\/60 2012","ispublic":1,"isfriend":0,"isfamily":0},{"id":"50534115046","owner":"30279041@N04","secret":"be616da64b","server":"65535","farm":66,"title":"Oreca 03 LMP2 2012","ispublic":1,"isfriend":0,"isfamily":0},{"id":"50534286182","owner":"93829702@N05","secret":"c7efec0fe5","server":"65535","farm":66,"title":"Droplets","ispublic":1,"isfriend":0,"isfamily":0},{"id":"50533343483","owner":"8185859@N08","secret":"8f6f42675b","server":"65535","farm":66,"title":"CarGoTram, Dresden","ispublic":1,"isfriend":0,"isfamily":0},{"id":"50534066861","owner":"93207294@N04","secret":"69a388a806","server":"65535","farm":66,"title":"Br\u00fctsch Mopetta - 1957","ispublic":1,"isfriend":0,"isfamily":0},{"id":"50534066596","owner":"93207294@N04","secret":"93cd0e9710","server":"65535","farm":66,"title":"Br\u00fctsch Mopetta - 1957","ispublic":1,"isfriend":0,"isfamily":0},{"id":"50534217452","owner":"93207294@N04","secret":"37eb2dfee2","server":"65535","farm":66,"title":"Br\u00fctsch Mopetta - 1957","ispublic":1,"isfriend":0,"isfamily":0},{"id":"50533306833","owner":"144948677@N04","secret":"32677898c6","server":"65535","farm":66,"title":"Happy Client!","ispublic":1,"isfriend":0,"isfamily":0},{"id":"50533303383","owner":"101459504@N04","secret":"dda8d62c3a","server":"65535","farm":66,"title":"Double TDF","ispublic":1,"isfriend":0,"isfamily":0},{"id":"50534033466","owner":"190437057@N07","secret":"e579f4b53e","server":"65535","farm":66,"title":"IMG_8047","ispublic":1,"isfriend":0,"isfamily":0},{"id":"50534182757","owner":"190437057@N07","secret":"20f24ce743","server":"65535","farm":66,"title":"IMG_8179","ispublic":1,"isfriend":0,"isfamily":0},{"id":"50534025661","owner":"64643062@N07","secret":"d9feda279d","server":"65535","farm":66,"title":"Skoda Scala","ispublic":1,"isfriend":0,"isfamily":0},{"id":"50533296593","owner":"64643062@N07","secret":"902238162b","server":"65535","farm":66,"title":"Skoda Scala","ispublic":1,"isfriend":0,"isfamily":0},{"id":"50534025546","owner":"64643062@N07","secret":"69cf34f944","server":"65535","farm":66,"title":"Skoda Scala","ispublic":1,"isfriend":0,"isfamily":0},{"id":"50534176702","owner":"64643062@N07","secret":"76279a6495","server":"65535","farm":66,"title":"Skoda Scala","ispublic":1,"isfriend":0,"isfamily":0},{"id":"50534025421","owner":"64643062@N07","secret":"1e0e071cf6","server":"65535","farm":66,"title":"Skoda Scala","ispublic":1,"isfriend":0,"isfamily":0},{"id":"50534023871","owner":"133660028@N08","secret":"4a0b22d96b","server":"65535","farm":66,"title":"Blick durch das Fenster - Look through the window","ispublic":1,"isfriend":0,"isfamily":0},{"id":"50533279163","owner":"190437057@N07","secret":"0d83a43922","server":"65535","farm":66,"title":"IMG_8286","ispublic":1,"isfriend":0,"isfamily":0},{"id":"50534158952","owner":"190437057@N07","secret":"b68cd4df14","server":"65535","farm":66,"title":"IMG_8293","ispublic":1,"isfriend":0,"isfamily":0},{"id":"50533985176","owner":"190695198@N07","secret":"fa690feee5","server":"65535","farm":66,"title":"Car Detailing in Denver, CO","ispublic":1,"isfriend":0,"isfamily":0},{"id":"50534121622","owner":"93207294@N04","secret":"cc5b0092fd","server":"65535","farm":66,"title":"Volvo L3314-H-T 'Laplander' 4x4 Military - 1965","ispublic":1,"isfriend":0,"isfamily":0},{"id":"50533970471","owner":"93207294@N04","secret":"272e3bfc6f","server":"65535","farm":66,"title":"Volvo L3314-H-T 'Laplander' 4x4 Military - 1965","ispublic":1,"isfriend":0,"isfamily":0},{"id":"50533241783","owner":"93207294@N04","secret":"15e73d6a04","server":"65535","farm":66,"title":"Volvo L3314-H-T 'Laplander' 4x4 Military - 1965","ispublic":1,"isfriend":0,"isfamily":0},{"id":"50533970146","owner":"93207294@N04","secret":"60054104cc","server":"65535","farm":66,"title":"Volvo L3314-H-T 'Laplander' 4x4 Military - 1965","ispublic":1,"isfriend":0,"isfamily":0},{"id":"50534080322","owner":"189781412@N03","secret":"dcb1a503ec","server":"65535","farm":66,"title":"06282019_ Ford GT 40 W_Douglas AirplaneIMG_0209","ispublic":1,"isfriend":0,"isfamily":0},{"id":"50534073597","owner":"65344061@N06","secret":"0365ef70d9","server":"65535","farm":66,"title":"Undercover Lambo","ispublic":1,"isfriend":0,"isfamily":0},{"id":"50534073392","owner":"65344061@N06","secret":"2ea7c443a7","server":"65535","farm":66,"title":"Ford Escort 1989","ispublic":1,"isfriend":0,"isfamily":0},{"id":"50533192828","owner":"65344061@N06","secret":"d38abb4cbc","server":"65535","farm":66,"title":"Ford Escort 1989","ispublic":1,"isfriend":0,"isfamily":0},{"id":"50533917181","owner":"60333237@N08","secret":"72f446c563","server":"65535","farm":66,"title":"","ispublic":1,"isfriend":0,"isfamily":0},{"id":"50533896506","owner":"59040910@N02","secret":"b3cebcf541","server":"65535","farm":66,"title":"NS 145 in SK Yard","ispublic":1,"isfriend":0,"isfamily":0},{"id":"50534050462","owner":"66289212@N07","secret":"af2b10f05e","server":"65535","farm":66,"title":"1989-06-12 @ Newcastle: 1630 Edinburgh-London King's Cross: HST no. 43116 [slide 4016]","ispublic":1,"isfriend":0,"isfamily":0},{"id":"50534022547","owner":"132076107@N08","secret":"f591913b99","server":"65535","farm":66,"title":"MILLE MIGLIA, 2020","ispublic":1,"isfriend":0,"isfamily":0},{"id":"50534022507","owner":"132076107@N08","secret":"95021508d1","server":"65535","farm":66,"title":"MILLE MIGLIA, 2020","ispublic":1,"isfriend":0,"isfamily":0},{"id":"50533140273","owner":"132076107@N08","secret":"1a62ffe172","server":"65535","farm":66,"title":"MILLE MIGLIA, 2020","ispublic":1,"isfriend":0,"isfamily":0},{"id":"50534021892","owner":"190860159@N08","secret":"63e85b27d1","server":"65535","farm":66,"title":"Road blocked\ud83d\udeab","ispublic":1,"isfriend":0,"isfamily":0},{"id":"50533115863","owner":"190681573@N07","secret":"229ff567a3","server":"65535","farm":66,"title":"Waiting...","ispublic":1,"isfriend":0,"isfamily":0},{"id":"50533801971","owner":"188558242@N04","secret":"f711d16497","server":"65535","farm":66,"title":"Bronco","ispublic":1,"isfriend":0,"isfamily":0},{"id":"50533801381","owner":"84283998@N06","secret":"5436da7231","server":"65535","farm":66,"title":"Beautiful Day For A Mask","ispublic":1,"isfriend":0,"isfamily":0},{"id":"50533949252","owner":"73653739@N03","secret":"7c928e5d13","server":"65535","farm":66,"title":"WK19 BUH","ispublic":1,"isfriend":0,"isfamily":0},{"id":"50533796501","owner":"73653739@N03","secret":"daa169c47d","server":"65535","farm":66,"title":"Unmarked Collision Investigation","ispublic":1,"isfriend":0,"isfamily":0},{"id":"50533926942","owner":"16658021@N07","secret":"9a07de4426","server":"65535","farm":66,"title":"Champagne Bentley, Detroit","ispublic":1,"isfriend":0,"isfamily":0},{"id":"50533746856","owner":"78517182@N07","secret":"77ff34b645","server":"65535","farm":66,"title":"Leaves, leaves and more leaves","ispublic":1,"isfriend":0,"isfamily":0},{"id":"50533711881","owner":"30279041@N04","secret":"e2ca9cec2e","server":"65535","farm":66,"title":"Ferrari F430 GT2 2007","ispublic":1,"isfriend":0,"isfamily":0},{"id":"50533700826","owner":"30279041@N04","secret":"c53416c8c6","server":"65535","farm":66,"title":"Oreca 03 LMP2 2012","ispublic":1,"isfriend":0,"isfamily":0},{"id":"50533699281","owner":"30279041@N04","secret":"f2dcc92ce5","server":"65535","farm":66,"title":"McLaren MP4-12C GT3 2012","ispublic":1,"isfriend":0,"isfamily":0},{"id":"50532963223","owner":"30279041@N04","secret":"a6e66bb99a","server":"65535","farm":66,"title":"Lola B12\/60 2012","ispublic":1,"isfriend":0,"isfamily":0},{"id":"50532956223","owner":"30279041@N04","secret":"bdfef76958","server":"65535","farm":66,"title":"Lola B12\/60 2012","ispublic":1,"isfriend":0,"isfamily":0},{"id":"50532985688","owner":"190754727@N07","secret":"2a90735e94","server":"65535","farm":66,"title":"tecniq-moto","ispublic":1,"isfriend":0,"isfamily":0},{"id":"50533851797","owner":"52008410@N00","secret":"892776a0dd","server":"65535","farm":66,"title":"Porsche 718 Boxster Rear Cambridge Oct 2020","ispublic":1,"isfriend":0,"isfamily":0},{"id":"50533858627","owner":"32569229@N06","secret":"70a190fb5b","server":"65535","farm":66,"title":"Audi RS Q3 Sportback","ispublic":1,"isfriend":0,"isfamily":0},{"id":"50533702271","owner":"32569229@N06","secret":"830906dec5","server":"65535","farm":66,"title":"Chevrolet Corvette C6","ispublic":1,"isfriend":0,"isfamily":0},{"id":"50533848122","owner":"89441860@N04","secret":"af3fde2ca9","server":"65535","farm":66,"title":"New Arrival","ispublic":1,"isfriend":0,"isfamily":0},{"id":"50532947583","owner":"93207294@N04","secret":"9c5bcd77b7","server":"65535","farm":66,"title":"Mercedes 280 GE Station Wagon SWB - 1985","ispublic":1,"isfriend":0,"isfamily":0},{"id":"50532947403","owner":"93207294@N04","secret":"d9a396b61a","server":"65535","farm":66,"title":"Mercedes 280 GE Station Wagon SWB - 1985","ispublic":1,"isfriend":0,"isfamily":0},{"id":"50533673636","owner":"93207294@N04","secret":"56ceccedde","server":"65535","farm":66,"title":"Mercedes 280 GE Station Wagon SWB - 1985","ispublic":1,"isfriend":0,"isfamily":0},{"id":"50532947113","owner":"93207294@N04","secret":"756aa5ffcd","server":"65535","farm":66,"title":"Mercedes 280 GE Station Wagon SWB - 1985","ispublic":1,"isfriend":0,"isfamily":0},{"id":"50532855138","owner":"53934695@N06","secret":"0158724773","server":"65535","farm":66,"title":"On Loan EV1","ispublic":1,"isfriend":0,"isfamily":0},{"id":"50532889723","owner":"121141396@N06","secret":"fd190f763a","server":"65535","farm":66,"title":"CRX del Sol","ispublic":1,"isfriend":0,"isfamily":0},{"id":"50532148878","owner":"14024074@N05","secret":"b86b77086c","server":"65535","farm":66,"title":"1951 Chevrolet Styline Deluxe Virgil Simpson Clovis New Mexico Colorized","ispublic":1,"isfriend":0,"isfamily":0},{"id":"50493419338","owner":"101009134@N06","secret":"af1fa25bd2","server":"65535","farm":66,"title":"CUBA La Habana Centro XVII SW","ispublic":1,"isfriend":0,"isfamily":0},{"id":"50447142521","owner":"101009134@N06","secret":"0028dea1c0","server":"65535","farm":66,"title":"CUBA La Habana Centro XIX","ispublic":1,"isfriend":0,"isfamily":0},{"id":"50533572721","owner":"18338366@N00","secret":"830d351d4d","server":"65535","farm":66,"title":"Hummer H3","ispublic":1,"isfriend":0,"isfamily":0},{"id":"50533551666","owner":"165157034@N07","secret":"7a4a101de8","server":"65535","farm":66,"title":"Cuba - habana street - The tree of light","ispublic":1,"isfriend":0,"isfamily":0},{"id":"50533704637","owner":"144491124@N05","secret":"7c321d0c05","server":"65535","farm":66,"title":"1935 Austin 10\/4","ispublic":1,"isfriend":0,"isfamily":0},{"id":"50533518241","owner":"185869302@N05","secret":"05b4eabe12","server":"65535","farm":66,"title":"Tour auto 2020","ispublic":1,"isfriend":0,"isfamily":0},{"id":"50533671507","owner":"185869302@N05","secret":"5d2a652d0a","server":"65535","farm":66,"title":"Tour auto 2020","ispublic":1,"isfriend":0,"isfamily":0},{"id":"50533669262","owner":"185869302@N05","secret":"c71f6eecd8","server":"65535","farm":66,"title":"Tour auto 2020","ispublic":1,"isfriend":0,"isfamily":0},{"id":"50533511601","owner":"185869302@N05","secret":"a7cfdf2063","server":"65535","farm":66,"title":"Tour auto 2020","ispublic":1,"isfriend":0,"isfamily":0},{"id":"50533509031","owner":"185869302@N05","secret":"a819e7fdff","server":"65535","farm":66,"title":"Tour auto 2020","ispublic":1,"isfriend":0,"isfamily":0},{"id":"50532783273","owner":"121141396@N06","secret":"79bd3aa60a","server":"65535","farm":66,"title":"LT tow truck","ispublic":1,"isfriend":0,"isfamily":0},{"id":"50532782418","owner":"185869302@N05","secret":"5d8fd0c560","server":"65535","farm":66,"title":"Tour auto 2020","ispublic":1,"isfriend":0,"isfamily":0},{"id":"50532780088","owner":"185869302@N05","secret":"16c5745908","server":"65535","farm":66,"title":"Tour auto 2020","ispublic":1,"isfriend":0,"isfamily":0},{"id":"50533503526","owner":"185869302@N05","secret":"360ee95d8f","server":"65535","farm":66,"title":"Tour auto 2020","ispublic":1,"isfriend":0,"isfamily":0},{"id":"50532778043","owner":"125250765@N04","secret":"c6656f70d4","server":"65535","farm":66,"title":"1965 Buick Riviera","ispublic":1,"isfriend":0,"isfamily":0},{"id":"50533655652","owner":"185869302@N05","secret":"9ab6f40b82","server":"65535","farm":66,"title":"Tour auto 2020","ispublic":1,"isfriend":0,"isfamily":0},{"id":"50533498001","owner":"185869302@N05","secret":"b9b9b1871c","server":"65535","farm":66,"title":"Tour auto 2020","ispublic":1,"isfriend":0,"isfamily":0},{"id":"50533493426","owner":"185869302@N05","secret":"076db793e5","server":"65535","farm":66,"title":"Tour auto 2020","ispublic":1,"isfriend":0,"isfamily":0},{"id":"50532767133","owner":"185869302@N05","secret":"19874984eb","server":"65535","farm":66,"title":"Tour auto 2020","ispublic":1,"isfriend":0,"isfamily":0},{"id":"50532763908","owner":"185869302@N05","secret":"750489916b","server":"65535","farm":66,"title":"Tour auto 2020","ispublic":1,"isfriend":0,"isfamily":0},{"id":"50533641812","owner":"185869302@N05","secret":"09a1a8a5fd","server":"65535","farm":66,"title":"Tour auto 2020","ispublic":1,"isfriend":0,"isfamily":0},{"id":"50533639372","owner":"185869302@N05","secret":"177be6b8b1","server":"65535","farm":66,"title":"Tour auto 2020","ispublic":1,"isfriend":0,"isfamily":0},{"id":"50532756968","owner":"185869302@N05","secret":"e09a7a4800","server":"65535","farm":66,"title":"Tour auto 2020","ispublic":1,"isfriend":0,"isfamily":0},{"id":"50533635677","owner":"185869302@N05","secret":"d3e9a95f21","server":"65535","farm":66,"title":"Tour auto 2020","ispublic":1,"isfriend":0,"isfamily":0},{"id":"50533478241","owner":"185869302@N05","secret":"323a54ecb3","server":"65535","farm":66,"title":"Tour auto 2020","ispublic":1,"isfriend":0,"isfamily":0}]},"stat":"ok"}
