2020-10-26 20:47:31.609 +01:00 [INF] {"photos":{"page":1,"pages":4119,"perpage":100,"total":"411849","photo":[{"id":"50534402277","owner":"94589194@N02","secret":"15d3b75c01","server":"65535","farm":66,"title":"Ma\u00efdan Kyiv","ispublic":1,"isfriend":0,"isfamily":0},{"id":"50533509693","owner":"117671697@N03","secret":"dc0816053c","server":"65535","farm":66,"title":"Laos- near Luang Prabang","ispublic":1,"isfriend":0,"isfamily":0},{"id":"50533491998","owner":"26181971@N07","secret":"287f4b0300","server":"65535","farm":66,"title":"2013-07-23 Beach","ispublic":1,"isfriend":0,"isfamily":0},{"id":"50534210146","owner":"187060650@N06","secret":"ac501bda71","server":"65535","farm":66,"title":"Musicians","ispublic":1,"isfriend":0,"isfamily":0},{"id":"50533478253","owner":"188924430@N02","secret":"d8fef434ac","server":"65535","farm":66,"title":"Stranger portrait: Kelly with devil horns","ispublic":1,"isfriend":0,"isfamily":0},{"id":"50534193041","owner":"139038172@N03","secret":"eff6d6b45c","server":"65535","farm":66,"title":"If You Could Read My Mind","ispublic":1,"isfriend":0,"isfamily":0},{"id":"50534189651","owner":"182886935@N08","secret":"9d66eff67e","server":"65535","farm":66,"title":"anonymous no.24","ispublic":1,"isfriend":0,"isfamily":0},{"id":"50534339377","owner":"68801823@N00","secret":"12956f7132","server":"65535","farm":66,"title":"Absence","ispublic":1,"isfriend":0,"isfamily":0},{"id":"50534186031","owner":"98815931@N07","secret":"ae27539b6d","server":"65535","farm":66,"title":"Walk with time..","ispublic":1,"isfriend":0,"isfamily":0},{"id":"50534286472","owner":"45676023@N06","secret":"508e79dcfa","server":"65535","farm":66,"title":"MonkeyShinesNYC","ispublic":1,"isfriend":0,"isfamily":0},{"id":"50534145886","owner":"134764957@N02","secret":"4cfce1292b","server":"65535","farm":66,"title":"Orsi3","ispublic":1,"isfriend":0,"isfamily":0},{"id":"50533368118","owner":"66888488@N02","secret":"a279ccd805","server":"65535","farm":66,"title":"Summerfolk 2019","ispublic":1,"isfriend":0,"isfamily":0},{"id":"50534236357","owner":"66888488@N02","secret":"1be1435c76","server":"65535","farm":66,"title":"Summerfolk 2019","ispublic":1,"isfriend":0,"isfamily":0},{"id":"50534085306","owner":"133054234@N02","secret":"ff719cba06","server":"65535","farm":66,"title":"Crossing","ispublic":1,"isfriend":0,"isfamily":0},{"id":"50534084751","owner":"90410079@N07","secret":"8789a466fe","server":"65535","farm":66,"title":"Fiestas del Pilar 2019 - Ofrenda de Frutos","ispublic":1,"isfriend":0,"isfamily":0},{"id":"50534078131","owner":"127703385@N06","secret":"200094a1d1","server":"65535","farm":66,"title":"Bicycles and Trains","ispublic":1,"isfriend":0,"isfamily":0},{"id":"50533347513","owner":"26458066@N03","secret":"c25e635fd4","server":"65535","farm":66,"title":"Feeding The Ducks.","ispublic":1,"isfriend":0,"isfamily":0},{"id":"50533342703","owner":"190785506@N02","secret":"3d40140b1a","server":"65535","farm":66,"title":".111","ispublic":1,"isfriend":0,"isfamily":0},{"id":"50534065366","owner":"190785506@N02","secret":"4272d2618d","server":"65535","farm":66,"title":".1111","ispublic":1,"isfriend":0,"isfamily":0},{"id":"50534208742","owner":"190785506@N02","secret":"993db72b56","server":"65535","farm":66,"title":"1.","ispublic":1,"isfriend":0,"isfamily":0},{"id":"50533326993","owner":"190785506@N02","secret":"8f284726b7","server":"65535","farm":66,"title":"jjj11","ispublic":1,"isfriend":0,"isfamily":0},{"id":"50534200162","owner":"190785506@N02","secret":"602fe6d9fc","server":"65535","farm":66,"title":"999999999999","ispublic":1,"isfriend":0,"isfamily":0},{"id":"50534046451","owner":"190785506@N02","secret":"0ca50d2dec","server":"65535","farm":66,"title":"enddd","ispublic":1,"isfriend":0,"isfamily":0},{"id":"50533316393","owner":"190785506@N02","secret":"81301cd483","server":"65535","farm":66,"title":"end","ispublic":1,"isfriend":0,"isfamily":0},{"id":"50533315833","owner":"190785506@N02","secret":"b794a116d4","server":"65535","farm":66,"title":"999999.","ispublic":1,"isfriend":0,"isfamily":0},{"id":"50534194112","owner":"190785506@N02","secret":"28332349ff","server":"65535","farm":66,"title":"99999","ispublic":1,"isfriend":0,"isfamily":0},{"id":"50534188212","owner":"190785506@N02","secret":"23a63e50df","server":"65535","farm":66,"title":"en","ispublic":1,"isfriend":0,"isfamily":0},{"id":"50534033546","owner":"190785506@N02","secret":"601294366d","server":"65535","farm":66,"title":"Suspicions","ispublic":1,"isfriend":0,"isfamily":0},{"id":"50534031556","owner":"190785506@N02","secret":"5eda28a873","server":"65535","farm":66,"title":":","ispublic":1,"isfriend":0,"isfamily":0},{"id":"50534177577","owner":"190785506@N02","secret":"2938392bb2","server":"65535","farm":66,"title":"jjj1","ispublic":1,"isfriend":0,"isfamily":0},{"id":"50534025201","owner":"190785506@N02","secret":"888f13000c","server":"65535","farm":66,"title":"jjj111","ispublic":1,"isfriend":0,"isfamily":0},{"id":"50534180862","owner":"47118504@N06","secret":"8a97140b9f","server":"65535","farm":66,"title":"Mustafa","ispublic":1,"isfriend":0,"isfamily":0},{"id":"50534180802","owner":"47118504@N06","secret":"249774a76d","server":"65535","farm":66,"title":"Mustafa","ispublic":1,"isfriend":0,"isfamily":0},{"id":"50534180747","owner":"47118504@N06","secret":"e5e117bfb6","server":"65535","farm":66,"title":"Mustafa","ispublic":1,"isfriend":0,"isfamily":0},{"id":"50533300163","owner":"47118504@N06","secret":"d6d47843e6","server":"65535","farm":66,"title":"Mustafa","ispublic":1,"isfriend":0,"isfamily":0},{"id":"50533300098","owner":"47118504@N06","secret":"a088469ef3","server":"65535","farm":66,"title":"Mustafa","ispublic":1,"isfriend":0,"isfamily":0},{"id":"50534180687","owner":"47118504@N06","secret":"2d0d1d7a5c","server":"65535","farm":66,"title":"Mustafa","ispublic":1,"isfriend":0,"isfamily":0},{"id":"50533300033","owner":"47118504@N06","secret":"a5969dbbd1","server":"65535","farm":66,"title":"Mustafa","ispublic":1,"isfriend":0,"isfamily":0},{"id":"50534180552","owner":"47118504@N06","secret":"2e59e94882","server":"65535","farm":66,"title":"Mustafa","ispublic":1,"isfriend":0,"isfamily":0},{"id":"50534180532","owner":"47118504@N06","secret":"0879a674e0","server":"65535","farm":66,"title":"Mustafa","ispublic":1,"isfriend":0,"isfamily":0},{"id":"50534183227","owner":"8800347@N05","secret":"afd932e640","server":"65535","farm":66,"title":"26_160413_1081_7RM3.jpg","ispublic":1,"isfriend":0,"isfamily":0},{"id":"50534031346","owner":"8800347@N05","secret":"bca7d35c9c","server":"65535","farm":66,"title":"26_160306_1061_7RM3.jpg","ispublic":1,"isfriend":0,"isfamily":0},{"id":"50533295023","owner":"189282766@N05","secret":"ecae1c8fcc","server":"65535","farm":66,"title":"Caroline Sturken. Intuitively Indulge the Senses","ispublic":1,"isfriend":0,"isfamily":0},{"id":"50534169427","owner":"75692374@N02","secret":"30b9437312","server":"65535","farm":66,"title":"Kunzum Pass","ispublic":1,"isfriend":0,"isfamily":0},{"id":"50534017146","owner":"7364439@N02","secret":"6bcefeeb19","server":"65535","farm":66,"title":"Autumn walks","ispublic":1,"isfriend":0,"isfamily":0},{"id":"50534016371","owner":"190785506@N02","secret":"57a2663597","server":"65535","farm":66,"title":"4..","ispublic":1,"isfriend":0,"isfamily":0},{"id":"50534164887","owner":"190437057@N07","secret":"85f4488d39","server":"65535","farm":66,"title":"IMG_8246","ispublic":1,"isfriend":0,"isfamily":0},{"id":"50534163737","owner":"190437057@N07","secret":"26c363938b","server":"65535","farm":66,"title":"IMG_8246_1","ispublic":1,"isfriend":0,"isfamily":0},{"id":"50533281698","owner":"190437057@N07","secret":"6ffbdcd5e7","server":"65535","farm":66,"title":"IMG_8252","ispublic":1,"isfriend":0,"isfamily":0},{"id":"50533252933","owner":"190860439@N08","secret":"76b1795b9e","server":"65535","farm":66,"title":"How to Pass a Drug Test","ispublic":1,"isfriend":0,"isfamily":0},{"id":"15842212178","owner":"91734152@N08","secret":"7229056805","server":"7574","farm":8,"title":"IMGP7414","ispublic":1,"isfriend":0,"isfamily":0},{"id":"50534145042","owner":"188924430@N02","secret":"181c6c6095","server":"65535","farm":66,"title":"Stranger portrait Brad, writer & rebel","ispublic":1,"isfriend":0,"isfamily":0},{"id":"50533959801","owner":"153537832@N02","secret":"229f9e0344","server":"65535","farm":66,"title":"Streetview","ispublic":1,"isfriend":0,"isfamily":0},{"id":"50533222608","owner":"190785506@N02","secret":"fbfddd2f85","server":"65535","farm":66,"title":"1 2","ispublic":1,"isfriend":0,"isfamily":0},{"id":"50533895811","owner":"22458569@N04","secret":"a1b269f1cb","server":"65535","farm":66,"title":"\u00abRomeo and Juliet\u00bb Romeo and Benvolio, noir ver.","ispublic":1,"isfriend":0,"isfamily":0},{"id":"50533165663","owner":"22458569@N04","secret":"1ca099af83","server":"65535","farm":66,"title":"\u00abRomeo and Juliet\u00bb Nikita Shatalov and Ekaterina Terentyeva, noir ver.","ispublic":1,"isfriend":0,"isfamily":0},{"id":"50533165348","owner":"22458569@N04","secret":"5454daf1d0","server":"65535","farm":66,"title":"Female relatives of the house of Capulet \u00abRomeo and Juliet\u00bb, noir ver.","ispublic":1,"isfriend":0,"isfamily":0},{"id":"50533165078","owner":"22458569@N04","secret":"1702234069","server":"65535","farm":66,"title":"\u00abRomeo and Juliet\u00bb Romeo and monk Lorenzo, noir ver.","ispublic":1,"isfriend":0,"isfamily":0},{"id":"50533894281","owner":"22458569@N04","secret":"e6e9fa31aa","server":"65535","farm":66,"title":"Balthasar and Romeo's friends \u00abRomeo and Juliet\u00bb","ispublic":1,"isfriend":0,"isfamily":0},{"id":"50533893931","owner":"22458569@N04","secret":"c3c66b3279","server":"65535","farm":66,"title":"\u00abThey have made worms' meat of me...\u00bb \u00abRomeo and Juliet\u00bb, noir ver.","ispublic":1,"isfriend":0,"isfamily":0},{"id":"50533163663","owner":"22458569@N04","secret":"eefe70fb8f","server":"65535","farm":66,"title":"\u00abRomeo and Juliet\u00bb Romeo and monk Lorenzo, noir ver.","ispublic":1,"isfriend":0,"isfamily":0},{"id":"50533892691","owner":"22458569@N04","secret":"8498998c41","server":"65535","farm":66,"title":"\u00abRomeo and Juliet\u00bb Nikita Shatalov and Julia Mitina noir ver.","ispublic":1,"isfriend":0,"isfamily":0},{"id":"50534044657","owner":"22458569@N04","secret":"4fe0bf4f9d","server":"65535","farm":66,"title":"Julia Mitina as Juliet Capulet  \u00abRomeo and Juliet\u00bb, noir ver.","ispublic":1,"isfriend":0,"isfamily":0},{"id":"50533197983","owner":"67084790@N03","secret":"a02c575c0e","server":"65535","farm":66,"title":"DRD160401_0419","ispublic":1,"isfriend":0,"isfamily":0},{"id":"50533194878","owner":"190769548@N05","secret":"788cef1282","server":"65535","farm":66,"title":"","ispublic":1,"isfriend":0,"isfamily":0},{"id":"50533922581","owner":"67084790@N03","secret":"d20306c2d9","server":"65535","farm":66,"title":"DR150904_1202D","ispublic":1,"isfriend":0,"isfamily":0},{"id":"50533922296","owner":"67084790@N03","secret":"ca897d7b1e","server":"65535","farm":66,"title":"2A7_DSC0282","ispublic":1,"isfriend":0,"isfamily":0},{"id":"50533189348","owner":"190785506@N02","secret":"06350ecb01","server":"65535","farm":66,"title":"99","ispublic":1,"isfriend":0,"isfamily":0},{"id":"50533186223","owner":"190769548@N05","secret":"8fd360a7b2","server":"65535","farm":66,"title":"","ispublic":1,"isfriend":0,"isfamily":0},{"id":"50534066337","owner":"182958375@N04","secret":"dc0fd7db10","server":"65535","farm":66,"title":"Filling up the container of pills","ispublic":1,"isfriend":0,"isfamily":0},{"id":"50534053842","owner":"23064904@N08","secret":"7b1a9becc0","server":"65535","farm":66,"title":"DSC_1166-Edit","ispublic":1,"isfriend":0,"isfamily":0},{"id":"50533171618","owner":"8211107@N06","secret":"b2a0861955","server":"65535","farm":66,"title":"Herzog & de Meuron. Caixaforum #24","ispublic":1,"isfriend":0,"isfamily":0},{"id":"50533171543","owner":"23064904@N08","secret":"caaf993b69","server":"65535","farm":66,"title":"DSC_1087-Edit","ispublic":1,"isfriend":0,"isfamily":0},{"id":"50533165943","owner":"184943227@N05","secret":"b4b564faa6","server":"65535","farm":66,"title":"BETWEEN LINES AND SHADOWS","ispublic":1,"isfriend":0,"isfamily":0},{"id":"50533170573","owner":"23064904@N08","secret":"96466016b4","server":"65535","farm":66,"title":"DSC_8072-Edit-Edit","ispublic":1,"isfriend":0,"isfamily":0},{"id":"50533169938","owner":"23064904@N08","secret":"3a5922bfbe","server":"65535","farm":66,"title":"DSC_8838-Edit","ispublic":1,"isfriend":0,"isfamily":0},{"id":"50533898821","owner":"23064904@N08","secret":"04671a5e9e","server":"65535","farm":66,"title":"DSC_8824","ispublic":1,"isfriend":0,"isfamily":0},{"id":"50533898251","owner":"23064904@N08","secret":"3f37345bca","server":"65535","farm":66,"title":"DSC_8694","ispublic":1,"isfriend":0,"isfamily":0},{"id":"50533162008","owner":"190769548@N05","secret":"05cb182fe2","server":"65535","farm":66,"title":"","ispublic":1,"isfriend":0,"isfamily":0},{"id":"50533160688","owner":"190769548@N05","secret":"eb8d1e7a45","server":"65535","farm":66,"title":"","ispublic":1,"isfriend":0,"isfamily":0},{"id":"50533875151","owner":"74195519@N00","secret":"edb9d8c2a7","server":"65535","farm":66,"title":".","ispublic":1,"isfriend":0,"isfamily":0},{"id":"50533873111","owner":"130709055@N06","secret":"c1fd0cbf60","server":"65535","farm":66,"title":"a short story about the high altitude balcony with a View ...","ispublic":1,"isfriend":0,"isfamily":0},{"id":"50534025252","owner":"144398359@N04","secret":"319cb41baa","server":"65535","farm":66,"title":"Sunlight, Craig Goch Dam, Rhayader, Elan Valley, Wales","ispublic":1,"isfriend":0,"isfamily":0},{"id":"50533871471","owner":"45469423@N00","secret":"4fac3f3d0e","server":"65535","farm":66,"title":"At the Ecological Jungle Train Station","ispublic":1,"isfriend":0,"isfamily":0},{"id":"50534024037","owner":"45469423@N00","secret":"2f42cdc8bf","server":"65535","farm":66,"title":"At the Ecological Jungle Train Station","ispublic":1,"isfriend":0,"isfamily":0},{"id":"50534022857","owner":"190769548@N05","secret":"5ca55d3a9a","server":"65535","farm":66,"title":"","ispublic":1,"isfriend":0,"isfamily":0},{"id":"50533138603","owner":"152428502@N04","secret":"cc304ed8bb","server":"65535","farm":66,"title":"2020-07-18-\u00e0-19-Lille-109-px","ispublic":1,"isfriend":0,"isfamily":0},{"id":"50533130408","owner":"145658204@N07","secret":"a52859a392","server":"65535","farm":66,"title":"Entertainment","ispublic":1,"isfriend":0,"isfamily":0},{"id":"50533978127","owner":"190785506@N02","secret":"82f44a4009","server":"65535","farm":66,"title":"zzz","ispublic":1,"isfriend":0,"isfamily":0},{"id":"50533858256","owner":"190769548@N05","secret":"8febf3a5f2","server":"65535","farm":66,"title":"2020-10-26_06-48-07","ispublic":1,"isfriend":0,"isfamily":0},{"id":"50534006927","owner":"27844439@N05","secret":"8b6493ef34","server":"65535","farm":66,"title":"_MG_1522","ispublic":1,"isfriend":0,"isfamily":0},{"id":"50533852811","owner":"123786629@N07","secret":"3db1da8b56","server":"65535","farm":66,"title":"Llyn Ogwen waterfall.","ispublic":1,"isfriend":0,"isfamily":0},{"id":"50533123118","owner":"26747591@N08","secret":"5eb61e2266","server":"65535","farm":66,"title":"Taking a Pic of the Setting Sun Romeikos Gialos Seafront - Myrina Town - Lemnos - Greece  Olympus OM-D EM1.3 &  Sigma DN 56mm f1.4 Prime 1 of 1","ispublic":1,"isfriend":0,"isfamily":0},{"id":"50533851546","owner":"21395708@N06","secret":"cbf9e26943","server":"65535","farm":66,"title":"Admiring observer over the Danube river - HDR","ispublic":1,"isfriend":0,"isfamily":0},{"id":"50533998887","owner":"190681573@N07","secret":"48c3d5c097","server":"65535","farm":66,"title":"Carnaval parade Casteren 2020","ispublic":1,"isfriend":0,"isfamily":0},{"id":"50533845656","owner":"190785506@N02","secret":"dbdd6d20cc","server":"65535","farm":66,"title":".11111111111111","ispublic":1,"isfriend":0,"isfamily":0},{"id":"50533115863","owner":"190681573@N07","secret":"229ff567a3","server":"65535","farm":66,"title":"Waiting...","ispublic":1,"isfriend":0,"isfamily":0},{"id":"50533115038","owner":"190681573@N07","secret":"3e8c9f29c1","server":"65535","farm":66,"title":"Smoke break","ispublic":1,"isfriend":0,"isfamily":0},{"id":"50533843516","owner":"190681573@N07","secret":"6c750bdebe","server":"65535","farm":66,"title":"The Last Post","ispublic":1,"isfriend":0,"isfamily":0},{"id":"50533842616","owner":"190681573@N07","secret":"44c59c2e79","server":"65535","farm":66,"title":"Rotterdam","ispublic":1,"isfriend":0,"isfamily":0}]},"stat":"ok"}
