2020-10-26 20:47:23.866 +01:00 [INF] {"photos":{"page":1,"pages":4885,"perpage":100,"total":"488468","photo":[{"id":"50534250921","owner":"16272203@N07","secret":"d40eb5365d","server":"65535","farm":66,"title":"Looking towards the City","ispublic":1,"isfriend":0,"isfamily":0},{"id":"50534402277","owner":"94589194@N02","secret":"15d3b75c01","server":"65535","farm":66,"title":"Ma\u00efdan Kyiv","ispublic":1,"isfriend":0,"isfamily":0},{"id":"50534383727","owner":"54778115@N02","secret":"02bc873348","server":"65535","farm":66,"title":"","ispublic":1,"isfriend":0,"isfamily":0},{"id":"50534232061","owner":"54778115@N02","secret":"b31319e733","server":"65535","farm":66,"title":"","ispublic":1,"isfriend":0,"isfamily":0},{"id":"50534383647","owner":"54778115@N02","secret":"4fbd58f322","server":"65535","farm":66,"title":"","ispublic":1,"isfriend":0,"isfamily":0},{"id":"50534358247","owner":"143242076@N07","secret":"3f2173d69c","server":"65535","farm":66,"title":"\u201cAre these people of Noir\u2019Wen city guilty or innocent?\u201d","ispublic":1,"isfriend":0,"isfamily":0},{"id":"50534186031","owner":"98815931@N07","secret":"ae27539b6d","server":"65535","farm":66,"title":"Walk with time..","ispublic":1,"isfriend":0,"isfamily":0},{"id":"50533446218","owner":"21156896@N07","secret":"354a2c90d0","server":"65535","farm":66,"title":"Vacant Lot","ispublic":1,"isfriend":0,"isfamily":0},{"id":"50533434503","owner":"161389401@N04","secret":"b469dc610c","server":"65535","farm":66,"title":"Hamburg 2020 - Architektur","ispublic":1,"isfriend":0,"isfamily":0},{"id":"50533433773","owner":"161389401@N04","secret":"19383c47bd","server":"65535","farm":66,"title":"Hamburg 2020 - Architektur","ispublic":1,"isfriend":0,"isfamily":0},{"id":"50533411148","owner":"10089490@N06","secret":"e1488a36fd","server":"65535","farm":66,"title":"Vintage engine at Preston Docks","ispublic":1,"isfriend":0,"isfamily":0},{"id":"50534292542","owner":"10089490@N06","secret":"056274478f","server":"65535","farm":66,"title":"Towards Preston","ispublic":1,"isfriend":0,"isfamily":0},{"id":"50534286472","owner":"45676023@N06","secret":"508e79dcfa","server":"65535","farm":66,"title":"MonkeyShinesNYC","ispublic":1,"isfriend":0,"isfamily":0},{"id":"50533421613","owner":"68628359@N04","secret":"254b67dcea","server":"65535","farm":66,"title":"First Solent 47590 SN14ECT","ispublic":1,"isfriend":0,"isfamily":0},{"id":"50534300497","owner":"68628359@N04","secret":"4e573585ab","server":"65535","farm":66,"title":"Stagecoach South 27864 GX13AOJ","ispublic":1,"isfriend":0,"isfamily":0},{"id":"50534147566","owner":"68628359@N04","secret":"fc2f6b758b","server":"65535","farm":66,"title":"Stagecoach South 26158 SN67WWC","ispublic":1,"isfriend":0,"isfamily":0},{"id":"50533415288","owner":"68628359@N04","secret":"8d07f159d5","server":"65535","farm":66,"title":"First Solent 63370 SL16RAX","ispublic":1,"isfriend":0,"isfamily":0},{"id":"50534144041","owner":"68628359@N04","secret":"506e10e917","server":"65535","farm":66,"title":"First Solent 47416 SK63KLZ","ispublic":1,"isfriend":0,"isfamily":0},{"id":"50533410878","owner":"68628359@N04","secret":"692c4673e9","server":"65535","farm":66,"title":"Stagecoach South 26147 SN67WVR","ispublic":1,"isfriend":0,"isfamily":0},{"id":"50533408968","owner":"77650784@N04","secret":"6db6534eff","server":"65535","farm":66,"title":"Yaroslavl 60","ispublic":1,"isfriend":0,"isfamily":0},{"id":"50534278862","owner":"68628359@N04","secret":"8da22f384d","server":"65535","farm":66,"title":"First Solent 47589 SN14ECJ","ispublic":1,"isfriend":0,"isfamily":0},{"id":"50533388263","owner":"68628359@N04","secret":"7632c00d9b","server":"65535","farm":66,"title":"First Solent 67269 YX69NRY","ispublic":1,"isfriend":0,"isfamily":0},{"id":"50534117266","owner":"68628359@N04","secret":"7a7b713cf4","server":"65535","farm":66,"title":"First Solent 63372 SL16RBO","ispublic":1,"isfriend":0,"isfamily":0},{"id":"50534115096","owner":"68628359@N04","secret":"ab6545ab69","server":"65535","farm":66,"title":"Stagecoach South 26161 SN67WWF","ispublic":1,"isfriend":0,"isfamily":0},{"id":"50533382293","owner":"68628359@N04","secret":"4303c6dfaf","server":"65535","farm":66,"title":"First Solent 67281 YX69NTV","ispublic":1,"isfriend":0,"isfamily":0},{"id":"50533380268","owner":"68628359@N04","secret":"60e941d6a0","server":"65535","farm":66,"title":"Stagecoach South 26162 SN67WWG","ispublic":1,"isfriend":0,"isfamily":0},{"id":"50533377448","owner":"68628359@N04","secret":"85a68df892","server":"65535","farm":66,"title":"Stagecoach South 18523 GX06DXY","ispublic":1,"isfriend":0,"isfamily":0},{"id":"50534107271","owner":"68628359@N04","secret":"fe6615cb63","server":"65535","farm":66,"title":"First Solent 63043 SK63KHU","ispublic":1,"isfriend":0,"isfamily":0},{"id":"50534105451","owner":"68628359@N04","secret":"fbb7d48bfd","server":"65535","farm":66,"title":"First Solent Driver Trainer 62209 W597RFS","ispublic":1,"isfriend":0,"isfamily":0},{"id":"50534252977","owner":"68628359@N04","secret":"bab9333a3a","server":"65535","farm":66,"title":"First Solent 67266 YX69NPV","ispublic":1,"isfriend":0,"isfamily":0},{"id":"50533368613","owner":"68628359@N04","secret":"3508e7fb1d","server":"65535","farm":66,"title":"First Solent 67271 YX69NSE","ispublic":1,"isfriend":0,"isfamily":0},{"id":"50534036516","owner":"38154045@N04","secret":"f6867ba51c","server":"65535","farm":66,"title":"I'm not your average Joe...way above the average flow","ispublic":1,"isfriend":0,"isfamily":0},{"id":"45204522764","owner":"157619092@N06","secret":"2a79ce3a9c","server":"4826","farm":5,"title":"Mount Victoria Panorama","ispublic":1,"isfriend":0,"isfamily":0},{"id":"50534126221","owner":"129750093@N08","secret":"edc96d5770","server":"65535","farm":66,"title":"EU07-1502","ispublic":1,"isfriend":0,"isfamily":0},{"id":"50534231842","owner":"146297014@N06","secret":"68bffd20c5","server":"65535","farm":66,"title":"Observation sur un Havre d'un autre \u00e2ge I","ispublic":1,"isfriend":0,"isfamily":0},{"id":"50534080336","owner":"146297014@N06","secret":"633f30fc02","server":"65535","farm":66,"title":"Observation sur un Havre d'un autre \u00e2ge II","ispublic":1,"isfriend":0,"isfamily":0},{"id":"50534231472","owner":"146297014@N06","secret":"a959c9b323","server":"65535","farm":66,"title":"Observation sur un Havre d'un autre \u00e2ge III","ispublic":1,"isfriend":0,"isfamily":0},{"id":"50534231302","owner":"146297014@N06","secret":"b965d4ae05","server":"65535","farm":66,"title":"Observation sur un Havre d'un autre \u00e2ge IV","ispublic":1,"isfriend":0,"isfamily":0},{"id":"50534231162","owner":"146297014@N06","secret":"3cc150928c","server":"65535","farm":66,"title":"Observation sur un Havre d'un autre \u00e2ge V","ispublic":1,"isfriend":0,"isfamily":0},{"id":"50039514126","owner":"143455489@N03","secret":"86b644aeb0","server":"65535","farm":66,"title":"Scenic Lake Burley Griffin, Canberra, ACT, Australia","ispublic":1,"isfriend":0,"isfamily":0},{"id":"50533357643","owner":"137504441@N05","secret":"916ef5df20","server":"65535","farm":66,"title":"An Unlikely Haunted Place","ispublic":1,"isfriend":0,"isfamily":0},{"id":"50534237577","owner":"39631091@N03","secret":"7ae6cb2e5a","server":"65535","farm":66,"title":"Sagaing, view from Sagaing Hill","ispublic":1,"isfriend":0,"isfamily":0},{"id":"50534237157","owner":"155731772@N07","secret":"b8986e4aa2","server":"65535","farm":66,"title":"Parkbrug silver version","ispublic":1,"isfriend":0,"isfamily":0},{"id":"50533350018","owner":"35232195@N06","secret":"5d5295bef9","server":"65535","farm":66,"title":"Iron","ispublic":1,"isfriend":0,"isfamily":0},{"id":"50533343483","owner":"8185859@N08","secret":"8f6f42675b","server":"65535","farm":66,"title":"CarGoTram, Dresden","ispublic":1,"isfriend":0,"isfamily":0},{"id":"50533338248","owner":"145007687@N03","secret":"fd818f01fb","server":"65535","farm":66,"title":"Berlin Tempelhof","ispublic":1,"isfriend":0,"isfamily":0},{"id":"50533295968","owner":"141755413@N05","secret":"75b0c5051f","server":"65535","farm":66,"title":"Boaty's Rain","ispublic":1,"isfriend":0,"isfamily":0},{"id":"50533295448","owner":"141755413@N05","secret":"52143e2b21","server":"65535","farm":66,"title":"Double Rainbow With Boaty","ispublic":1,"isfriend":0,"isfamily":0},{"id":"50533295038","owner":"141755413@N05","secret":"b64e3de57c","server":"65535","farm":66,"title":"Rainbow McRainbowface","ispublic":1,"isfriend":0,"isfamily":0},{"id":"50533294328","owner":"141755413@N05","secret":"232d11627b","server":"65535","farm":66,"title":"Rainbow McRainbowface","ispublic":1,"isfriend":0,"isfamily":0},{"id":"50534168337","owner":"23095055@N05","secret":"8b1ab9ca37","server":"65535","farm":66,"title":"YN20CCK","ispublic":1,"isfriend":0,"isfamily":0},{"id":"50534160597","owner":"143593890@N07","secret":"3a01ed8b65","server":"65535","farm":66,"title":"On the streets of the village Novyi Svet_413","ispublic":1,"isfriend":0,"isfamily":0},{"id":"50534006111","owner":"54083450@N00","secret":"68b69aec56","server":"65535","farm":66,"title":"IMG_4724","ispublic":1,"isfriend":0,"isfamily":0},{"id":"50534156692","owner":"54083450@N00","secret":"9e2d835724","server":"65535","farm":66,"title":"IMG_4725","ispublic":1,"isfriend":0,"isfamily":0},{"id":"50533276213","owner":"54083450@N00","secret":"4b6734c8a0","server":"65535","farm":66,"title":"IMG_4726","ispublic":1,"isfriend":0,"isfamily":0},{"id":"50533275598","owner":"54083450@N00","secret":"9324765984","server":"65535","farm":66,"title":"IMG_4727","ispublic":1,"isfriend":0,"isfamily":0},{"id":"50534154937","owner":"54083450@N00","secret":"0c293de3af","server":"65535","farm":66,"title":"IMG_4728","ispublic":1,"isfriend":0,"isfamily":0},{"id":"50534003466","owner":"54083450@N00","secret":"5f4d93b9a4","server":"65535","farm":66,"title":"IMG_4729","ispublic":1,"isfriend":0,"isfamily":0},{"id":"50534153887","owner":"54083450@N00","secret":"221fcc3fea","server":"65535","farm":66,"title":"IMG_4731","ispublic":1,"isfriend":0,"isfamily":0},{"id":"50533273738","owner":"54083450@N00","secret":"fa39f9000a","server":"65535","farm":66,"title":"IMG_4732","ispublic":1,"isfriend":0,"isfamily":0},{"id":"50534002021","owner":"54083450@N00","secret":"245b964be6","server":"65535","farm":66,"title":"IMG_4734","ispublic":1,"isfriend":0,"isfamily":0},{"id":"50534152412","owner":"54083450@N00","secret":"7b3fd0e0a5","server":"65535","farm":66,"title":"IMG_4735","ispublic":1,"isfriend":0,"isfamily":0},{"id":"50533272128","owner":"54083450@N00","secret":"f6a869b096","server":"65535","farm":66,"title":"IMG_4736","ispublic":1,"isfriend":0,"isfamily":0},{"id":"50534151337","owner":"54083450@N00","secret":"27803b2119","server":"65535","farm":66,"title":"IMG_4738","ispublic":1,"isfriend":0,"isfamily":0},{"id":"50533999836","owner":"54083450@N00","secret":"6470206a92","server":"65535","farm":66,"title":"IMG_4739","ispublic":1,"isfriend":0,"isfamily":0},{"id":"50534150447","owner":"54083450@N00","secret":"61bcc4f728","server":"65535","farm":66,"title":"IMG_4740","ispublic":1,"isfriend":0,"isfamily":0},{"id":"50533998806","owner":"54083450@N00","secret":"b56c420140","server":"65535","farm":66,"title":"IMG_4741","ispublic":1,"isfriend":0,"isfamily":0},{"id":"50533269643","owner":"54083450@N00","secret":"2b784551d7","server":"65535","farm":66,"title":"IMG_4742","ispublic":1,"isfriend":0,"isfamily":0},{"id":"50534148437","owner":"54083450@N00","secret":"7a38f9bdce","server":"65535","farm":66,"title":"IMG_4743","ispublic":1,"isfriend":0,"isfamily":0},{"id":"50533996561","owner":"54083450@N00","secret":"161994026f","server":"65535","farm":66,"title":"IMG_4744","ispublic":1,"isfriend":0,"isfamily":0},{"id":"50533989966","owner":"62680279@N06","secret":"092edf901a","server":"65535","farm":66,"title":"Awake at night","ispublic":1,"isfriend":0,"isfamily":0},{"id":"50533261663","owner":"62680279@N06","secret":"0e5618616d","server":"65535","farm":66,"title":"Perfect views","ispublic":1,"isfriend":0,"isfamily":0},{"id":"50534127957","owner":"54083450@N00","secret":"c6d6ebaaf2","server":"65535","farm":66,"title":"IMG_4745","ispublic":1,"isfriend":0,"isfamily":0},{"id":"50533975786","owner":"54083450@N00","secret":"df226e9459","server":"65535","farm":66,"title":"IMG_4747","ispublic":1,"isfriend":0,"isfamily":0},{"id":"50533975141","owner":"54083450@N00","secret":"97a7769647","server":"65535","farm":66,"title":"IMG_4750","ispublic":1,"isfriend":0,"isfamily":0},{"id":"50533246288","owner":"54083450@N00","secret":"8a5328449a","server":"65535","farm":66,"title":"IMG_4751","ispublic":1,"isfriend":0,"isfamily":0},{"id":"50534125032","owner":"54083450@N00","secret":"f016976795","server":"65535","farm":66,"title":"IMG_4752","ispublic":1,"isfriend":0,"isfamily":0},{"id":"50533973311","owner":"54083450@N00","secret":"5863996860","server":"65535","farm":66,"title":"IMG_4753","ispublic":1,"isfriend":0,"isfamily":0},{"id":"50533972391","owner":"54083450@N00","secret":"230a937d60","server":"65535","farm":66,"title":"IMG_4754","ispublic":1,"isfriend":0,"isfamily":0},{"id":"50534122352","owner":"54083450@N00","secret":"c676140791","server":"65535","farm":66,"title":"IMG_4757","ispublic":1,"isfriend":0,"isfamily":0},{"id":"50534121627","owner":"54083450@N00","secret":"63efbc2c19","server":"65535","farm":66,"title":"IMG_4758","ispublic":1,"isfriend":0,"isfamily":0},{"id":"50534120992","owner":"54083450@N00","secret":"b60c6bc83c","server":"65535","farm":66,"title":"IMG_4759","ispublic":1,"isfriend":0,"isfamily":0},{"id":"50533240873","owner":"54083450@N00","secret":"13118e628a","server":"65535","farm":66,"title":"IMG_4760","ispublic":1,"isfriend":0,"isfamily":0},{"id":"50533240293","owner":"54083450@N00","secret":"ae9f788562","server":"65535","farm":66,"title":"IMG_4761","ispublic":1,"isfriend":0,"isfamily":0},{"id":"50534119507","owner":"54083450@N00","secret":"d0e7daa1e0","server":"65535","farm":66,"title":"IMG_4762","ispublic":1,"isfriend":0,"isfamily":0},{"id":"50533239323","owner":"54083450@N00","secret":"bb86443931","server":"65535","farm":66,"title":"IMG_4763","ispublic":1,"isfriend":0,"isfamily":0},{"id":"50534118497","owner":"54083450@N00","secret":"f98371a8af","server":"65535","farm":66,"title":"IMG_4764","ispublic":1,"isfriend":0,"isfamily":0},{"id":"50533966686","owner":"54083450@N00","secret":"b6471ea475","server":"65535","farm":66,"title":"IMG_4765","ispublic":1,"isfriend":0,"isfamily":0},{"id":"50533237368","owner":"54083450@N00","secret":"e2a8be2b5b","server":"65535","farm":66,"title":"IMG_4767","ispublic":1,"isfriend":0,"isfamily":0},{"id":"50533236938","owner":"54083450@N00","secret":"f1fde59c76","server":"65535","farm":66,"title":"IMG_4768","ispublic":1,"isfriend":0,"isfamily":0},{"id":"50533236428","owner":"54083450@N00","secret":"71a4777746","server":"65535","farm":66,"title":"IMG_4769","ispublic":1,"isfriend":0,"isfamily":0},{"id":"50534115482","owner":"54083450@N00","secret":"c48659cd68","server":"65535","farm":66,"title":"IMG_4770","ispublic":1,"isfriend":0,"isfamily":0},{"id":"50534115122","owner":"54083450@N00","secret":"0c8da82c85","server":"65535","farm":66,"title":"IMG_4771","ispublic":1,"isfriend":0,"isfamily":0},{"id":"50533234723","owner":"54083450@N00","secret":"ac4a2fd58e","server":"65535","farm":66,"title":"IMG_4772","ispublic":1,"isfriend":0,"isfamily":0},{"id":"50533962991","owner":"54083450@N00","secret":"472bc0fa0c","server":"65535","farm":66,"title":"IMG_4773","ispublic":1,"isfriend":0,"isfamily":0},{"id":"50533958421","owner":"54083450@N00","secret":"c6ce9edab0","server":"65535","farm":66,"title":"IMG_4776","ispublic":1,"isfriend":0,"isfamily":0},{"id":"50534109097","owner":"54083450@N00","secret":"04e016ab86","server":"65535","farm":66,"title":"IMG_4777","ispublic":1,"isfriend":0,"isfamily":0},{"id":"50534108422","owner":"54083450@N00","secret":"c25a77654f","server":"65535","farm":66,"title":"IMG_4778","ispublic":1,"isfriend":0,"isfamily":0},{"id":"50533956791","owner":"54083450@N00","secret":"250bd786aa","server":"65535","farm":66,"title":"IMG_4779","ispublic":1,"isfriend":0,"isfamily":0},{"id":"50533956371","owner":"54083450@N00","secret":"264430e048","server":"65535","farm":66,"title":"IMG_4781","ispublic":1,"isfriend":0,"isfamily":0}]},"stat":"ok"}
