2020-10-26 20:47:18.944 +01:00 [INF] {"photos":{"page":1,"pages":3842,"perpage":100,"total":"384124","photo":[{"id":"50534395197","owner":"96016676@N03","secret":"f491a0442e","server":"65535","farm":66,"title":"DSCG0799","ispublic":1,"isfriend":0,"isfamily":0},{"id":"50533465398","owner":"189291837@N04","secret":"33b860be71","server":"65535","farm":66,"title":"Red Funnel Tug","ispublic":1,"isfriend":0,"isfamily":0},{"id":"50533464648","owner":"44381054@N05","secret":"7ac1edba37","server":"65535","farm":66,"title":"2 Sailing by Castle Stalker P1510717mods","ispublic":1,"isfriend":0,"isfamily":0},{"id":"50533439608","owner":"39415781@N06","secret":"17e8cb0bab","server":"65535","farm":66,"title":"Worcester & Birmingham Canal in Stirchley - Scrapped boat","ispublic":1,"isfriend":0,"isfamily":0},{"id":"50533402308","owner":"55578087@N08","secret":"9aec665165","server":"65535","farm":66,"title":"UK - Buckinghamshire - Boveney - Boat entering Boveney lock on River Thames","ispublic":1,"isfriend":0,"isfamily":0},{"id":"50533401168","owner":"55578087@N08","secret":"9f2fef3437","server":"65535","farm":66,"title":"UK - Buckinghamshire - Boveney - Boat leaving Boveney lock on River Thames","ispublic":1,"isfriend":0,"isfamily":0},{"id":"50534105651","owner":"141755413@N05","secret":"0ccf25aecf","server":"65535","farm":66,"title":"Hilda Knutsen","ispublic":1,"isfriend":0,"isfamily":0},{"id":"50534104681","owner":"141755413@N05","secret":"b6a209b3a2","server":"65535","farm":66,"title":"Hilda Knutsen","ispublic":1,"isfriend":0,"isfamily":0},{"id":"50534254192","owner":"141755413@N05","secret":"eabf81727b","server":"65535","farm":66,"title":"Hilda Knutsen","ispublic":1,"isfriend":0,"isfamily":0},{"id":"50534253087","owner":"141755413@N05","secret":"b24680ee44","server":"65535","farm":66,"title":"Hilda Knutsen","ispublic":1,"isfriend":0,"isfamily":0},{"id":"50533370658","owner":"141755413@N05","secret":"37b253b866","server":"65535","farm":66,"title":"Hilda Knutsen","ispublic":1,"isfriend":0,"isfamily":0},{"id":"50533369618","owner":"141755413@N05","secret":"21b2eff43e","server":"65535","farm":66,"title":"Hilda Knutsen","ispublic":1,"isfriend":0,"isfamily":0},{"id":"50533368543","owner":"141755413@N05","secret":"385598cd96","server":"65535","farm":66,"title":"Hilda Knutsen","ispublic":1,"isfriend":0,"isfamily":0},{"id":"50534248647","owner":"141755413@N05","secret":"a615b6b3d6","server":"65535","farm":66,"title":"Hilda Knutsen","ispublic":1,"isfriend":0,"isfamily":0},{"id":"50534097116","owner":"141755413@N05","secret":"4e14581cf8","server":"65535","farm":66,"title":"Hilda Knutsen","ispublic":1,"isfriend":0,"isfamily":0},{"id":"50534246032","owner":"141755413@N05","secret":"c49e785fa9","server":"65535","farm":66,"title":"Hilda Knutsen","ispublic":1,"isfriend":0,"isfamily":0},{"id":"50533363868","owner":"141755413@N05","secret":"5c21804a81","server":"65535","farm":66,"title":"Hilda Knutsen","ispublic":1,"isfriend":0,"isfamily":0},{"id":"50533362933","owner":"141755413@N05","secret":"d337e05b68","server":"65535","farm":66,"title":"Hilda Knutsen","ispublic":1,"isfriend":0,"isfamily":0},{"id":"50533360688","owner":"141755413@N05","secret":"236460f961","server":"65535","farm":66,"title":"Hilda Knutsen","ispublic":1,"isfriend":0,"isfamily":0},{"id":"50533359838","owner":"141755413@N05","secret":"b835062ed7","server":"65535","farm":66,"title":"Hilda Knutsen","ispublic":1,"isfriend":0,"isfamily":0},{"id":"50534227007","owner":"85319781@N00","secret":"42b5d6a7af","server":"65535","farm":66,"title":"Dinghy On the shoreline at Heswall boat yard","ispublic":1,"isfriend":0,"isfamily":0},{"id":"50534225532","owner":"24581194@N07","secret":"07fe5c2f96","server":"65535","farm":66,"title":"Travers\u00e9e","ispublic":1,"isfriend":0,"isfamily":0},{"id":"50534074106","owner":"24581194@N07","secret":"545e8769c4","server":"65535","farm":66,"title":"Travers\u00e9e","ispublic":1,"isfriend":0,"isfamily":0},{"id":"50534038921","owner":"55578087@N08","secret":"9b5b364b31","server":"65535","farm":66,"title":"UK - Buckinghamshire - Boveney - Boat on River Thames","ispublic":1,"isfriend":0,"isfamily":0},{"id":"50533295968","owner":"141755413@N05","secret":"75b0c5051f","server":"65535","farm":66,"title":"Boaty's Rain","ispublic":1,"isfriend":0,"isfamily":0},{"id":"50533295448","owner":"141755413@N05","secret":"52143e2b21","server":"65535","farm":66,"title":"Double Rainbow With Boaty","ispublic":1,"isfriend":0,"isfamily":0},{"id":"50533295038","owner":"141755413@N05","secret":"b64e3de57c","server":"65535","farm":66,"title":"Rainbow McRainbowface","ispublic":1,"isfriend":0,"isfamily":0},{"id":"50533294328","owner":"141755413@N05","secret":"232d11627b","server":"65535","farm":66,"title":"Rainbow McRainbowface","ispublic":1,"isfriend":0,"isfamily":0},{"id":"50534152882","owner":"22695788@N05","secret":"34eac3dd06","server":"65535","farm":66,"title":"YANGSHUO","ispublic":1,"isfriend":0,"isfamily":0},{"id":"50533244333","owner":"123727742@N03","secret":"a985bc3e4b","server":"65535","farm":66,"title":"En el puerto de Luarca Asturias","ispublic":1,"isfriend":0,"isfamily":0},{"id":"50533913261","owner":"86383760@N03","secret":"9d170c08b2","server":"65535","farm":66,"title":"Water, Ground, Air","ispublic":1,"isfriend":0,"isfamily":0},{"id":"50533912836","owner":"75908149@N05","secret":"5d6f86e37e","server":"65535","farm":66,"title":"MV Caledonian Isles - Ardrossan -19-07-20","ispublic":1,"isfriend":0,"isfamily":0},{"id":"50534065412","owner":"75908149@N05","secret":"6cd93e9cb9","server":"65535","farm":66,"title":"Well Enhancer - Leith - 25-10-20","ispublic":1,"isfriend":0,"isfamily":0},{"id":"50533184123","owner":"75908149@N05","secret":"51681aa92c","server":"65535","farm":66,"title":"Ragna - Forth Road Bridge - 25-10-20","ispublic":1,"isfriend":0,"isfamily":0},{"id":"50534026027","owner":"76856785@N00","secret":"27a288968e","server":"65535","farm":66,"title":"Abandoned...","ispublic":1,"isfriend":0,"isfamily":0},{"id":"50533134098","owner":"149129064@N06","secret":"b3bdb3d4c9","server":"65535","farm":66,"title":"Anchored...","ispublic":1,"isfriend":0,"isfamily":0},{"id":"50533852811","owner":"123786629@N07","secret":"3db1da8b56","server":"65535","farm":66,"title":"Llyn Ogwen waterfall.","ispublic":1,"isfriend":0,"isfamily":0},{"id":"50533846271","owner":"188815360@N06","secret":"f8c79ceec1","server":"65535","farm":66,"title":"ST BRENDAN 16m pilot boat","ispublic":1,"isfriend":0,"isfamily":0},{"id":"50533837971","owner":"94491727@N04","secret":"0b32cdaa3e","server":"65535","farm":66,"title":"9483s Softly, softly","ispublic":1,"isfriend":0,"isfamily":0},{"id":"50533813811","owner":"158138233@N04","secret":"6c8478ac6a","server":"65535","farm":66,"title":"LE CROISIC  FRANCE","ispublic":1,"isfriend":0,"isfamily":0},{"id":"50533806796","owner":"189336526@N02","secret":"67261ded36","server":"65535","farm":66,"title":"The watcher","ispublic":1,"isfriend":0,"isfamily":0},{"id":"50533785911","owner":"16529740@N02","secret":"902d885f8f","server":"65535","farm":66,"title":"High & Dry","ispublic":1,"isfriend":0,"isfamily":0},{"id":"50533773286","owner":"134541241@N05","secret":"ab234f44f1","server":"65535","farm":66,"title":"Late october sunrise","ispublic":1,"isfriend":0,"isfamily":0},{"id":"50533772066","owner":"100010510@N06","secret":"1f615d0c7f","server":"65535","farm":66,"title":"Hudson River, New York","ispublic":1,"isfriend":0,"isfamily":0},{"id":"50533034443","owner":"30389998@N03","secret":"4dcae84f19","server":"65535","farm":66,"title":"Fishing boat departs Dalyan, near \u00c7e\u015fme, Turkey","ispublic":1,"isfriend":0,"isfamily":0},{"id":"50533912057","owner":"30389998@N03","secret":"28e08dccee","server":"65535","farm":66,"title":"Fishing boat departs Dalyan, near \u00c7e\u015fme, Turkey","ispublic":1,"isfriend":0,"isfamily":0},{"id":"50533754171","owner":"126568250@N02","secret":"014cc4da57","server":"65535","farm":66,"title":"Fishing beneath the mountain","ispublic":1,"isfriend":0,"isfamily":0},{"id":"50533903817","owner":"30389998@N03","secret":"aabaccc6f3","server":"65535","farm":66,"title":"Fishing boat departs Dalyan, near \u00c7e\u015fme, Turkey","ispublic":1,"isfriend":0,"isfamily":0},{"id":"50533697556","owner":"129368178@N07","secret":"77762cea47","server":"65535","farm":66,"title":"At Peace","ispublic":1,"isfriend":0,"isfamily":0},{"id":"50533707081","owner":"184050746@N05","secret":"92f6ae8c53","server":"65535","farm":66,"title":"Sunday in Padua","ispublic":1,"isfriend":0,"isfamily":0},{"id":"50533860707","owner":"184050746@N05","secret":"202ba0b95e","server":"65535","farm":66,"title":"Sunday in Padua","ispublic":1,"isfriend":0,"isfamily":0},{"id":"50532980458","owner":"184050746@N05","secret":"f09f169102","server":"65535","farm":66,"title":"Sunday in Padua","ispublic":1,"isfriend":0,"isfamily":0},{"id":"50533835892","owner":"66118069@N05","secret":"b632f9229a","server":"65535","farm":66,"title":"Boat sizes and shapes","ispublic":1,"isfriend":0,"isfamily":0},{"id":"50532943028","owner":"88198496@N04","secret":"f2cc3c97d7","server":"65535","farm":66,"title":"Pike angling early 20th cent.","ispublic":1,"isfriend":0,"isfamily":0},{"id":"50533666096","owner":"133876835@N08","secret":"939e7d83fc","server":"65535","farm":66,"title":"Corsica \/ Corse - D\u00e9sert des Agriates","ispublic":1,"isfriend":0,"isfamily":0},{"id":"50532938483","owner":"33937977@N00","secret":"7b82d8f1cf","server":"65535","farm":66,"title":"Mistletoe Bird 3 Chicks Content","ispublic":1,"isfriend":0,"isfamily":0},{"id":"50532930763","owner":"94851897@N00","secret":"81686aa76c","server":"65535","farm":66,"title":"IMG_6936","ispublic":1,"isfriend":0,"isfamily":0},{"id":"50533632836","owner":"33937977@N00","secret":"972057e647","server":"65535","farm":66,"title":"Mistletoe Bird 2 Hungry Chicks","ispublic":1,"isfriend":0,"isfamily":0},{"id":"50532907248","owner":"33937977@N00","secret":"3c83c0d7c6","server":"65535","farm":66,"title":"Mistletoe Bird 1 Mum Has Food","ispublic":1,"isfriend":0,"isfamily":0},{"id":"50532887798","owner":"106451916@N08","secret":"3514fc10dc","server":"65535","farm":66,"title":"2020 Ontario Fall Colors series 2 - A Fresh Morning","ispublic":1,"isfriend":0,"isfamily":0},{"id":"50533764252","owner":"73595953@N07","secret":"2ff9f9a4b6","server":"65535","farm":66,"title":"IMG_109","ispublic":1,"isfriend":0,"isfamily":0},{"id":"50533594246","owner":"42289168@N08","secret":"78e8c1932e","server":"65535","farm":66,"title":"rp_119","ispublic":1,"isfriend":0,"isfamily":0},{"id":"50533627007","owner":"34113448@N02","secret":"b01ebff988","server":"65535","farm":66,"title":"Virgo","ispublic":1,"isfriend":0,"isfamily":0},{"id":"50532734638","owner":"43548080@N03","secret":"ca99cddbe2","server":"65535","farm":66,"title":"Living on the river","ispublic":1,"isfriend":0,"isfamily":0},{"id":"50532691313","owner":"69933194@N08","secret":"605fac39e9","server":"65535","farm":66,"title":"New life","ispublic":1,"isfriend":0,"isfamily":0},{"id":"50532690288","owner":"168042208@N03","secret":"f6cf93277a","server":"65535","farm":66,"title":"Sailor","ispublic":1,"isfriend":0,"isfamily":0},{"id":"50533470447","owner":"129472585@N03","secret":"6c985394d8","server":"65535","farm":66,"title":"Arizona - Lake Powell:  Boat ramp & parked houseboats","ispublic":1,"isfriend":0,"isfamily":0},{"id":"50533470022","owner":"129472585@N03","secret":"12ed085273","server":"65535","farm":66,"title":"Arizona - Lake Powell: Wahweap Marina - silence - wait for spring...","ispublic":1,"isfriend":0,"isfamily":0},{"id":"50533429392","owner":"75908149@N05","secret":"66fc3f3a11","server":"65535","farm":66,"title":"Sunflower - Ratho Marina - 26-10-20","ispublic":1,"isfriend":0,"isfamily":0},{"id":"50533201226","owner":"37366098@N00","secret":"2c6cdb4255","server":"65535","farm":66,"title":"No Fish Today","ispublic":1,"isfriend":0,"isfamily":0},{"id":"50533196686","owner":"37366098@N00","secret":"0423a8b0e9","server":"65535","farm":66,"title":"Harbour Herring Gull","ispublic":1,"isfriend":0,"isfamily":0},{"id":"50533331612","owner":"16689630@N08","secret":"9ec13eac7c","server":"65535","farm":66,"title":"Sydney Harbour, Australia","ispublic":1,"isfriend":0,"isfamily":0},{"id":"50532515368","owner":"74313678@N00","secret":"5b275c2a0f","server":"65535","farm":66,"title":"Victoria of Wight","ispublic":1,"isfriend":0,"isfamily":0},{"id":"50532506708","owner":"25834184@N04","secret":"8e009f9074","server":"65535","farm":66,"title":"B\u00e5d","ispublic":1,"isfriend":0,"isfamily":0},{"id":"50532477403","owner":"189959332@N04","secret":"e574cc9a14","server":"65535","farm":66,"title":"Try-Barco-01","ispublic":1,"isfriend":0,"isfamily":0},{"id":"50532473758","owner":"40923951@N08","secret":"dc5815125b","server":"65535","farm":66,"title":"mainhattan","ispublic":1,"isfriend":0,"isfamily":0},{"id":"50532446288","owner":"150202650@N03","secret":"5a237704da","server":"65535","farm":66,"title":"3K002301a_C","ispublic":1,"isfriend":0,"isfamily":0},{"id":"50533163591","owner":"150202650@N03","secret":"cc439a18a6","server":"65535","farm":66,"title":"3KB15150a_C","ispublic":1,"isfriend":0,"isfamily":0},{"id":"50533315407","owner":"52809689@N06","secret":"82e6d57014","server":"65535","farm":66,"title":"Bergen","ispublic":1,"isfriend":0,"isfamily":0},{"id":"50533154171","owner":"158438800@N02","secret":"9a4f68c94a","server":"65535","farm":66,"title":"2017-06-05 AT Wien 02 Leopoldstadt, Donaukanal @ Schwemmgasse, Vindobona 30000106","ispublic":1,"isfriend":0,"isfamily":0},{"id":"50532428183","owner":"158438800@N02","secret":"67a8fa4424","server":"65535","farm":66,"title":"2017-06-05 AT Wien 02 Leopoldstadt, Donaukanal @ Schwemmgasse, Vindobona 30000106","ispublic":1,"isfriend":0,"isfamily":0},{"id":"50533268932","owner":"142037452@N02","secret":"797b3c2943","server":"65535","farm":66,"title":"Gulf of Finland","ispublic":1,"isfriend":0,"isfamily":0},{"id":"50532382558","owner":"142037452@N02","secret":"c2f6205c9b","server":"65535","farm":66,"title":"Gulf of Finland","ispublic":1,"isfriend":0,"isfamily":0},{"id":"50533048431","owner":"129532144@N03","secret":"d16d3e0e2e","server":"65535","farm":66,"title":"Bateau Noirmoutier Vend\u00e9e  1","ispublic":1,"isfriend":0,"isfamily":0},{"id":"50533205107","owner":"129532144@N03","secret":"2cd1bc8cf4","server":"65535","farm":66,"title":"Bateau Noirmoutier Vend\u00e9e  2","ispublic":1,"isfriend":0,"isfamily":0},{"id":"50533048196","owner":"129532144@N03","secret":"b98238fe85","server":"65535","farm":66,"title":"Bateau Noirmoutier Vend\u00e9e  3","ispublic":1,"isfriend":0,"isfamily":0},{"id":"50533204987","owner":"129532144@N03","secret":"993f94202b","server":"65535","farm":66,"title":"Bateau Noirmoutier Vend\u00e9e  4","ispublic":1,"isfriend":0,"isfamily":0},{"id":"50533204717","owner":"129532144@N03","secret":"6c7cfa8bd9","server":"65535","farm":66,"title":"Bateau Noirmoutier Vend\u00e9e  5","ispublic":1,"isfriend":0,"isfamily":0},{"id":"50533204487","owner":"129532144@N03","secret":"df7cfe7764","server":"65535","farm":66,"title":"Bateau Noirmoutier Vend\u00e9e  6","ispublic":1,"isfriend":0,"isfamily":0},{"id":"50533204347","owner":"129532144@N03","secret":"ca84f7f990","server":"65535","farm":66,"title":"Bateau Noirmoutier Vend\u00e9e  7","ispublic":1,"isfriend":0,"isfamily":0},{"id":"50532322098","owner":"129532144@N03","secret":"d2560a9d24","server":"65535","farm":66,"title":"Bateau Noirmoutier Vend\u00e9e  8","ispublic":1,"isfriend":0,"isfamily":0},{"id":"50533204017","owner":"129532144@N03","secret":"22a1c639ba","server":"65535","farm":66,"title":"Bateau Noirmoutier Vend\u00e9e  9","ispublic":1,"isfriend":0,"isfamily":0},{"id":"50533047111","owner":"129532144@N03","secret":"5267ffe324","server":"65535","farm":66,"title":"Bateau Noirmoutier Vend\u00e9e  10","ispublic":1,"isfriend":0,"isfamily":0},{"id":"50532321783","owner":"129532144@N03","secret":"2759ee593f","server":"65535","farm":66,"title":"Bateau Noirmoutier Vend\u00e9e 1","ispublic":1,"isfriend":0,"isfamily":0},{"id":"50533203772","owner":"129532144@N03","secret":"c434149d13","server":"65535","farm":66,"title":"Bateau Noirmoutier Vend\u00e9e 11","ispublic":1,"isfriend":0,"isfamily":0},{"id":"50533046851","owner":"129532144@N03","secret":"0c04688e1b","server":"65535","farm":66,"title":"Bateau Noirmoutier Vend\u00e9e 13","ispublic":1,"isfriend":0,"isfamily":0},{"id":"50532321443","owner":"129532144@N03","secret":"0b66fae427","server":"65535","farm":66,"title":"Bateau Noirmoutier Vend\u00e9e 14","ispublic":1,"isfriend":0,"isfamily":0},{"id":"50533046621","owner":"129532144@N03","secret":"38a632a5cb","server":"65535","farm":66,"title":"Bateau Noirmoutier Vend\u00e9e 15","ispublic":1,"isfriend":0,"isfamily":0},{"id":"50533046451","owner":"129532144@N03","secret":"ac99ce200e","server":"65535","farm":66,"title":"Bateau Noirmoutier Vend\u00e9e 16","ispublic":1,"isfriend":0,"isfamily":0},{"id":"50533041941","owner":"28147498@N07","secret":"ae7d0e4f69","server":"65535","farm":66,"title":"Seneca sailing 2","ispublic":1,"isfriend":0,"isfamily":0}]},"stat":"ok"}
