2020-10-26 20:47:39.346 +01:00 [INF] {"photos":{"page":1,"pages":3825,"perpage":100,"total":"382498","photo":[{"id":"50533960136","owner":"190811060@N06","secret":"6ec6852959","server":"65535","farm":66,"title":"20200927_144109","ispublic":1,"isfriend":0,"isfamily":0},{"id":"50533569036","owner":"141027077@N08","secret":"d5c1ae03b2","server":"65535","farm":66,"title":"DSC_9969.jpg","ispublic":1,"isfriend":0,"isfamily":0},{"id":"50533568531","owner":"141027077@N08","secret":"a709b0330f","server":"65535","farm":66,"title":"DSC_9967.jpg","ispublic":1,"isfriend":0,"isfamily":0},{"id":"50532842828","owner":"141027077@N08","secret":"a92458b209","server":"65535","farm":66,"title":"DSC_9962.jpg","ispublic":1,"isfriend":0,"isfamily":0},{"id":"50533567781","owner":"141027077@N08","secret":"f8a97a63f1","server":"65535","farm":66,"title":"DSC_9958.jpg","ispublic":1,"isfriend":0,"isfamily":0},{"id":"50532842138","owner":"141027077@N08","secret":"2658ba024b","server":"65535","farm":66,"title":"DSC_9949.jpg","ispublic":1,"isfriend":0,"isfamily":0},{"id":"50533722227","owner":"141027077@N08","secret":"88d61bac3f","server":"65535","farm":66,"title":"DSC_9940.jpg","ispublic":1,"isfriend":0,"isfamily":0},{"id":"50533566936","owner":"141027077@N08","secret":"d6c7e9ac3b","server":"65535","farm":66,"title":"DSC_9937.jpg","ispublic":1,"isfriend":0,"isfamily":0},{"id":"50533721722","owner":"141027077@N08","secret":"8c80a844e4","server":"65535","farm":66,"title":"DSC_9935.jpg","ispublic":1,"isfriend":0,"isfamily":0},{"id":"50533566366","owner":"141027077@N08","secret":"346b3c9f4c","server":"65535","farm":66,"title":"DSC_9924.jpg","ispublic":1,"isfriend":0,"isfamily":0},{"id":"50533566006","owner":"141027077@N08","secret":"26d9dcfab2","server":"65535","farm":66,"title":"DSC_9917.jpg","ispublic":1,"isfriend":0,"isfamily":0},{"id":"50533564366","owner":"141027077@N08","secret":"d540968a12","server":"65535","farm":66,"title":"DSC_9914.jpg","ispublic":1,"isfriend":0,"isfamily":0},{"id":"50533562516","owner":"141027077@N08","secret":"1afc91b4eb","server":"65535","farm":66,"title":"DSC_9913.jpg","ispublic":1,"isfriend":0,"isfamily":0},{"id":"50533716487","owner":"141027077@N08","secret":"ca97c2fde6","server":"65535","farm":66,"title":"DSC_9907.jpg","ispublic":1,"isfriend":0,"isfamily":0},{"id":"50532835363","owner":"141027077@N08","secret":"3019fcc837","server":"65535","farm":66,"title":"DSC_9905.jpg","ispublic":1,"isfriend":0,"isfamily":0},{"id":"50533715552","owner":"141027077@N08","secret":"8bbdb2a6d6","server":"65535","farm":66,"title":"DSC_9903.jpg","ispublic":1,"isfriend":0,"isfamily":0},{"id":"50533715207","owner":"141027077@N08","secret":"3cc88e8613","server":"65535","farm":66,"title":"DSC_9898.jpg","ispublic":1,"isfriend":0,"isfamily":0},{"id":"50532833998","owner":"141027077@N08","secret":"0aa6da6665","server":"65535","farm":66,"title":"DSC_9896.jpg","ispublic":1,"isfriend":0,"isfamily":0},{"id":"50533714137","owner":"141027077@N08","secret":"d5616ddc02","server":"65535","farm":66,"title":"DSC_9895.jpg","ispublic":1,"isfriend":0,"isfamily":0},{"id":"50533712582","owner":"141027077@N08","secret":"54d87a4ba1","server":"65535","farm":66,"title":"DSC_9891.jpg","ispublic":1,"isfriend":0,"isfamily":0},{"id":"50533556171","owner":"141027077@N08","secret":"5a4d434284","server":"65535","farm":66,"title":"DSC_9881.jpg","ispublic":1,"isfriend":0,"isfamily":0},{"id":"50533710857","owner":"141027077@N08","secret":"3bf920aa46","server":"65535","farm":66,"title":"DSC_9878.jpg","ispublic":1,"isfriend":0,"isfamily":0},{"id":"50533555361","owner":"141027077@N08","secret":"0aa8412cc5","server":"65535","farm":66,"title":"DSC_9877.jpg","ispublic":1,"isfriend":0,"isfamily":0},{"id":"50533555001","owner":"141027077@N08","secret":"3fa768ee43","server":"65535","farm":66,"title":"DSC_9876.jpg","ispublic":1,"isfriend":0,"isfamily":0},{"id":"50532829048","owner":"141027077@N08","secret":"214ee06973","server":"65535","farm":66,"title":"DSC_9869.jpg","ispublic":1,"isfriend":0,"isfamily":0},{"id":"50533709062","owner":"141027077@N08","secret":"545ecfc19f","server":"65535","farm":66,"title":"DSC_9865.jpg","ispublic":1,"isfriend":0,"isfamily":0},{"id":"50533708467","owner":"141027077@N08","secret":"42c097a98d","server":"65535","farm":66,"title":"DSC_9864.jpg","ispublic":1,"isfriend":0,"isfamily":0},{"id":"50532827018","owner":"141027077@N08","secret":"3172f1ea4c","server":"65535","farm":66,"title":"DSC_9862.jpg","ispublic":1,"isfriend":0,"isfamily":0},{"id":"50532826438","owner":"141027077@N08","secret":"60840632f0","server":"65535","farm":66,"title":"DSC_9853.jpg","ispublic":1,"isfriend":0,"isfamily":0},{"id":"50533551286","owner":"141027077@N08","secret":"7330633aa8","server":"65535","farm":66,"title":"DSC_9850.jpg","ispublic":1,"isfriend":0,"isfamily":0},{"id":"50533705027","owner":"141027077@N08","secret":"b26b3a14d6","server":"65535","farm":66,"title":"DSC_9849.jpg","ispublic":1,"isfriend":0,"isfamily":0},{"id":"50532822703","owner":"141027077@N08","secret":"a6806a11e5","server":"65535","farm":66,"title":"DSC_9847.jpg","ispublic":1,"isfriend":0,"isfamily":0},{"id":"50532822253","owner":"141027077@N08","secret":"57874ccc1d","server":"65535","farm":66,"title":"DSC_9841.jpg","ispublic":1,"isfriend":0,"isfamily":0},{"id":"50533702532","owner":"141027077@N08","secret":"38df7382dd","server":"65535","farm":66,"title":"DSC_9836.jpg","ispublic":1,"isfriend":0,"isfamily":0},{"id":"50532821293","owner":"141027077@N08","secret":"91b2e827c8","server":"65535","farm":66,"title":"DSC_9835.jpg","ispublic":1,"isfriend":0,"isfamily":0},{"id":"50532820963","owner":"141027077@N08","secret":"e1d9fbd7c8","server":"65535","farm":66,"title":"DSC_9834.jpg","ispublic":1,"isfriend":0,"isfamily":0},{"id":"50533701242","owner":"141027077@N08","secret":"688a585a97","server":"65535","farm":66,"title":"DSC_9830.jpg","ispublic":1,"isfriend":0,"isfamily":0},{"id":"50533700812","owner":"141027077@N08","secret":"8c7806e964","server":"65535","farm":66,"title":"DSC_9811.jpg","ispublic":1,"isfriend":0,"isfamily":0},{"id":"50532819628","owner":"141027077@N08","secret":"0ff7995011","server":"65535","farm":66,"title":"DSC_9807.jpg","ispublic":1,"isfriend":0,"isfamily":0},{"id":"50532819123","owner":"141027077@N08","secret":"8708b24d7e","server":"65535","farm":66,"title":"DSC_9806.jpg","ispublic":1,"isfriend":0,"isfamily":0},{"id":"50532818108","owner":"141027077@N08","secret":"e4304fa5cf","server":"65535","farm":66,"title":"DSC_9800.jpg","ispublic":1,"isfriend":0,"isfamily":0},{"id":"50533543041","owner":"141027077@N08","secret":"ba313ab058","server":"65535","farm":66,"title":"DSC_9799.jpg","ispublic":1,"isfriend":0,"isfamily":0},{"id":"50533542776","owner":"141027077@N08","secret":"6f4bd28e12","server":"65535","farm":66,"title":"DSC_9793.jpg","ispublic":1,"isfriend":0,"isfamily":0},{"id":"50533539391","owner":"141027077@N08","secret":"76b36090c6","server":"65535","farm":66,"title":"DSC_9792.jpg","ispublic":1,"isfriend":0,"isfamily":0},{"id":"50533694487","owner":"141027077@N08","secret":"fc646e2d18","server":"65535","farm":66,"title":"DSC_9787.jpg","ispublic":1,"isfriend":0,"isfamily":0},{"id":"50533694037","owner":"141027077@N08","secret":"9665f2f7ac","server":"65535","farm":66,"title":"DSC_9785.jpg","ispublic":1,"isfriend":0,"isfamily":0},{"id":"50533693592","owner":"141027077@N08","secret":"c708c0c639","server":"65535","farm":66,"title":"DSC_9782.jpg","ispublic":1,"isfriend":0,"isfamily":0},{"id":"50532812253","owner":"141027077@N08","secret":"f0f2d69e8c","server":"65535","farm":66,"title":"DSC_9780.jpg","ispublic":1,"isfriend":0,"isfamily":0},{"id":"50533692102","owner":"141027077@N08","secret":"01fcf6c667","server":"65535","farm":66,"title":"DSC_9774.jpg","ispublic":1,"isfriend":0,"isfamily":0},{"id":"50533533856","owner":"141027077@N08","secret":"b215e31b42","server":"65535","farm":66,"title":"DSC_9766.jpg","ispublic":1,"isfriend":0,"isfamily":0},{"id":"50533689252","owner":"141027077@N08","secret":"61dddf4922","server":"65535","farm":66,"title":"DSC_9765.jpg","ispublic":1,"isfriend":0,"isfamily":0},{"id":"50532807258","owner":"141027077@N08","secret":"69b974c222","server":"65535","farm":66,"title":"DSC_9764.jpg","ispublic":1,"isfriend":0,"isfamily":0},{"id":"50533532241","owner":"141027077@N08","secret":"de0a07e32f","server":"65535","farm":66,"title":"DSC_9761.jpg","ispublic":1,"isfriend":0,"isfamily":0},{"id":"50533687462","owner":"141027077@N08","secret":"00a335f29d","server":"65535","farm":66,"title":"DSC_9759.jpg","ispublic":1,"isfriend":0,"isfamily":0},{"id":"50533531251","owner":"141027077@N08","secret":"f458f1d1c5","server":"65535","farm":66,"title":"DSC_9755.jpg","ispublic":1,"isfriend":0,"isfamily":0},{"id":"50533530871","owner":"141027077@N08","secret":"af1e72a566","server":"65535","farm":66,"title":"DSC_9753.jpg","ispublic":1,"isfriend":0,"isfamily":0},{"id":"50533686492","owner":"141027077@N08","secret":"878de4920b","server":"65535","farm":66,"title":"DSC_9748.jpg","ispublic":1,"isfriend":0,"isfamily":0},{"id":"50533527761","owner":"141027077@N08","secret":"c1e981ca35","server":"65535","farm":66,"title":"DSC_9745.jpg","ispublic":1,"isfriend":0,"isfamily":0},{"id":"50532801528","owner":"141027077@N08","secret":"0549f698c5","server":"65535","farm":66,"title":"DSC_9742.jpg","ispublic":1,"isfriend":0,"isfamily":0},{"id":"50533526551","owner":"141027077@N08","secret":"464ea810b9","server":"65535","farm":66,"title":"DSC_9739.jpg","ispublic":1,"isfriend":0,"isfamily":0},{"id":"50533681632","owner":"141027077@N08","secret":"99d523c7ab","server":"65535","farm":66,"title":"DSC_9738.jpg","ispublic":1,"isfriend":0,"isfamily":0},{"id":"50533525751","owner":"141027077@N08","secret":"b54a765b39","server":"65535","farm":66,"title":"DSC_9733.jpg","ispublic":1,"isfriend":0,"isfamily":0},{"id":"50532799553","owner":"141027077@N08","secret":"b1df8d6567","server":"65535","farm":66,"title":"DSC_9726.jpg","ispublic":1,"isfriend":0,"isfamily":0},{"id":"50533679997","owner":"141027077@N08","secret":"facd8f35a7","server":"65535","farm":66,"title":"DSC_9719.jpg","ispublic":1,"isfriend":0,"isfamily":0},{"id":"50533679222","owner":"141027077@N08","secret":"2e6165c36f","server":"65535","farm":66,"title":"DSC_9715.jpg","ispublic":1,"isfriend":0,"isfamily":0},{"id":"50532796458","owner":"141027077@N08","secret":"4cd02a900d","server":"65535","farm":66,"title":"DSC_9710.jpg","ispublic":1,"isfriend":0,"isfamily":0},{"id":"50533677162","owner":"141027077@N08","secret":"9ea79cd730","server":"65535","farm":66,"title":"DSC_9706.jpg","ispublic":1,"isfriend":0,"isfamily":0},{"id":"50532795578","owner":"141027077@N08","secret":"2d8fb77fce","server":"65535","farm":66,"title":"DSC_9702.jpg","ispublic":1,"isfriend":0,"isfamily":0},{"id":"50533520751","owner":"141027077@N08","secret":"9bc0a6489e","server":"65535","farm":66,"title":"DSC_9699.jpg","ispublic":1,"isfriend":0,"isfamily":0},{"id":"50533676022","owner":"141027077@N08","secret":"f145a15e16","server":"65535","farm":66,"title":"DSC_9694.jpg","ispublic":1,"isfriend":0,"isfamily":0},{"id":"50533519816","owner":"141027077@N08","secret":"9e6fe5e7b7","server":"65535","farm":66,"title":"DSC_9693.jpg","ispublic":1,"isfriend":0,"isfamily":0},{"id":"50533519391","owner":"141027077@N08","secret":"ae5d8c339e","server":"65535","farm":66,"title":"DSC_9675.jpg","ispublic":1,"isfriend":0,"isfamily":0},{"id":"50532792763","owner":"141027077@N08","secret":"319b64f625","server":"65535","farm":66,"title":"DSC_9653.jpg","ispublic":1,"isfriend":0,"isfamily":0},{"id":"50533516241","owner":"141027077@N08","secret":"3c645a3d95","server":"65535","farm":66,"title":"DSC_9651.jpg","ispublic":1,"isfriend":0,"isfamily":0},{"id":"50532790528","owner":"141027077@N08","secret":"dfc66b02a8","server":"65535","farm":66,"title":"DSC_9649.jpg","ispublic":1,"isfriend":0,"isfamily":0},{"id":"50533515581","owner":"141027077@N08","secret":"4a559917bf","server":"65535","farm":66,"title":"DSC_9643.jpg","ispublic":1,"isfriend":0,"isfamily":0},{"id":"50532789808","owner":"141027077@N08","secret":"5c9325c8af","server":"65535","farm":66,"title":"DSC_9641.jpg","ispublic":1,"isfriend":0,"isfamily":0},{"id":"50533514396","owner":"141027077@N08","secret":"d18d90251f","server":"65535","farm":66,"title":"DSC_9622.jpg","ispublic":1,"isfriend":0,"isfamily":0},{"id":"50533669292","owner":"141027077@N08","secret":"9c9a1e6d44","server":"65535","farm":66,"title":"DSC_9619.jpg","ispublic":1,"isfriend":0,"isfamily":0},{"id":"50533513106","owner":"141027077@N08","secret":"6c496103ab","server":"65535","farm":66,"title":"DSC_9614.jpg","ispublic":1,"isfriend":0,"isfamily":0},{"id":"50532786903","owner":"141027077@N08","secret":"5b6fb3d933","server":"65535","farm":66,"title":"DSC_9607.jpg","ispublic":1,"isfriend":0,"isfamily":0},{"id":"50532785468","owner":"141027077@N08","secret":"9b7be5c35b","server":"65535","farm":66,"title":"DSC_9604.jpg","ispublic":1,"isfriend":0,"isfamily":0},{"id":"50533509106","owner":"141027077@N08","secret":"18fe730657","server":"65535","farm":66,"title":"DSC_9603.jpg","ispublic":1,"isfriend":0,"isfamily":0},{"id":"50532783008","owner":"141027077@N08","secret":"9b41ac8ef2","server":"65535","farm":66,"title":"DSC_9601.jpg","ispublic":1,"isfriend":0,"isfamily":0},{"id":"50533663247","owner":"141027077@N08","secret":"2d534ac729","server":"65535","farm":66,"title":"DSC_9599.jpg","ispublic":1,"isfriend":0,"isfamily":0},{"id":"50532782018","owner":"141027077@N08","secret":"87c1c12e50","server":"65535","farm":66,"title":"DSC_9590.jpg","ispublic":1,"isfriend":0,"isfamily":0},{"id":"50533506626","owner":"141027077@N08","secret":"cbe22cf37d","server":"65535","farm":66,"title":"DSC_9588.jpg","ispublic":1,"isfriend":0,"isfamily":0},{"id":"50533661312","owner":"141027077@N08","secret":"a370130f64","server":"65535","farm":66,"title":"DSC_9580.jpg","ispublic":1,"isfriend":0,"isfamily":0},{"id":"50532780518","owner":"141027077@N08","secret":"010a9e624d","server":"65535","farm":66,"title":"DSC_9575.jpg","ispublic":1,"isfriend":0,"isfamily":0},{"id":"50533658437","owner":"141027077@N08","secret":"04940abf63","server":"65535","farm":66,"title":"DSC_9568.jpg","ispublic":1,"isfriend":0,"isfamily":0},{"id":"50533500936","owner":"141027077@N08","secret":"42e0996f23","server":"65535","farm":66,"title":"DSC_9564.jpg","ispublic":1,"isfriend":0,"isfamily":0},{"id":"50533656092","owner":"141027077@N08","secret":"1e0e178358","server":"65535","farm":66,"title":"DSC_9561.jpg","ispublic":1,"isfriend":0,"isfamily":0},{"id":"50533499876","owner":"141027077@N08","secret":"6348da29fd","server":"65535","farm":66,"title":"DSC_9560.jpg","ispublic":1,"isfriend":0,"isfamily":0},{"id":"50533654932","owner":"141027077@N08","secret":"fd94eab563","server":"65535","farm":66,"title":"DSC_9555.jpg","ispublic":1,"isfriend":0,"isfamily":0},{"id":"50533498876","owner":"141027077@N08","secret":"07301ecfa4","server":"65535","farm":66,"title":"DSC_9538.jpg","ispublic":1,"isfriend":0,"isfamily":0},{"id":"50533653732","owner":"141027077@N08","secret":"965fddb987","server":"65535","farm":66,"title":"DSC_9526.jpg","ispublic":1,"isfriend":0,"isfamily":0},{"id":"50533653182","owner":"141027077@N08","secret":"d2df882458","server":"65535","farm":66,"title":"DSC_9524.jpg","ispublic":1,"isfriend":0,"isfamily":0},{"id":"50532772443","owner":"141027077@N08","secret":"72319d61a3","server":"65535","farm":66,"title":"DSC_9521.jpg","ispublic":1,"isfriend":0,"isfamily":0},{"id":"50533652187","owner":"141027077@N08","secret":"dbf765b059","server":"65535","farm":66,"title":"DSC_9512.jpg","ispublic":1,"isfriend":0,"isfamily":0},{"id":"50533493306","owner":"141027077@N08","secret":"a56083128c","server":"65535","farm":66,"title":"DSC_9511.jpg","ispublic":1,"isfriend":0,"isfamily":0}]},"stat":"ok"}
